<?xml version="1.0" encoding="utf-8"?>
<!-- Generator: Adobe Illustrator 21.0.0, SVG Export Plug-In . SVG Version: 6.00 Build 0)  -->
<svg version="1.1" id="Layer_1" xmlns="http://www.w3.org/2000/svg" xmlns:xlink="http://www.w3.org/1999/xlink" x="0px" y="0px"
	 viewBox="0 0 1920 220" style="enable-background:new 0 0 1920 220;" xml:space="preserve">
<style type="text/css">
	.st0{fill:#FFFFFF;}
</style>
<g id="XMLID_1_">
	<path id="XMLID_14_" class="st0" d="M-8,173.8C-8,115.9-8,57.9-8,0c646.8,0,1293.2,0,1940,0c0,8.1,0,16.8,0,24.9
		c-0.5,0-1.1,0-2.2,0c-48.4-9.2-97.4-15.2-146.3-17.9c-50.6-2.7-101.2-1.1-151.8,4.9c-47.3,6-94.1,16.2-139.8,30.3
		c-54.9,16.8-107.7,39.5-160.5,62.3c-53.9,23.8-107.2,47.7-162.7,67.7c-77.8,27.6-157.8,44.4-240.5,47.1
		c-56,2.2-111.5-1.1-166.5-8.7c-46.2-6.5-91.9-14.6-137.6-26c-87-21.7-174.1-40.1-263.3-48.7c-33.2-3.2-66.9-5.4-100.1-7
		c-41.3-1.6-82.7,0.5-124,5.4c-33.2,4.3-65.8,10.3-97.9,21.1C23,161.9,7.8,168.4-8,173.8z"/>
</g>
</svg>
