{
    "login": "",
    "name": "",
    "captchaUrl": "http://captcha.sigmasoft.ir/api",
    "payment": {
        "callbackUrl": "http://localhost:4283/#/transaction"
    },
    "api": {
        "url": "http://sigmasoft.ir/api/site",
        "auth": "{{api.url}}/auth/",
        "post": "{{api.url}}/post/",
        "course": "{{api.url}}/course/",
        "contactUs": "{{api.url}}/contact-us/",
        "lesson": "{{api.url}}/lesson/",
        "article": "{{api.url}}/article/",
        "vipservice": "{{api.url}}/vipservice/",
        "transaction": "{{api.url}}/transaction/",
        "comment": "{{api.url}}/comment/",
        "user": "{{api.url}}/user/"
    }
}
